assignment_6.1_Housing_Data.utf8
…
h. Calculate the standardized residuals using the appropriate command, specifying those that are +-2, storing the results of large residuals in a variable you create.

housing_data$large_residual <- housing_data$studentized_residuals > 2 | housing_data$studentized_residuals < -2

i. Use the appropriate function to show the sum of large residuals.

sum(housing_data$large_residual)

## [1] 317

j. Which specific variables have large residuals (only cases that evaluate as TRUE)?

housing_data[housing_data$large_residual, c('Sale Price', 'sq_ft_lot', 'square_feet_total_living',  'building_grade', "standardized_residuals")]

## # A tibble: 317 x 5
##    `Sale Price` sq_ft_lot square_feet_total_l~ building_grade standardized_resi~
##           <dbl>     <dbl>                <dbl>          <dbl>              <dbl>
##  1       265000    112650                 4920             10              -2.33
##  2      1390000    225640                  660              6               3.01
##  3       229000    236966                 3840             10              -2.04
##  4       390000     63162                 5800             11              -2.45
##  5      1588359      8752                 3360              9               2.16
##  6      1450000     14043                  900              6               3.15
##  7       163000     18498                 4710              9              -2.37
##  8       270000     89734                 5060             11              -2.49
##  9       200000    288367                 6880             10              -3.39
## 10       300000     55303                 4490             11              -2.16
## # ... with 307 more rows

k. Investigate further by calculating the leverage, cooks distance, and covariance rations. Comment on all cases that are problematics.

housing_data[housing_data$large_residual, c("cooks_distance", "leverage", "covariance_ratios")]

## # A tibble: 317 x 3
##    cooks_distance leverage covariance_ratios
##             <dbl>    <dbl>             <dbl>
##  1       0.000841 0.000617             0.999
##  2       0.00391  0.00173              0.999
##  3       0.00135  0.00130              1.00 
##  4       0.00139  0.000922             0.999
##  5       0.000172 0.000147             0.999
##  6       0.00102  0.000410             0.998
##  7       0.000903 0.000641             0.999
##  8       0.00106  0.000685             0.999
##  9       0.00885  0.00307              1.00 
## 10       0.000676 0.000578             0.999
## # ... with 307 more rows
…
